[gd_scene load_steps=4 format=2]

[sub_resource type="Theme" id=1]

[sub_resource type="StyleBoxFlat" id=2]
bg_color = Color( 0.0470588, 0.596078, 0, 1 )

[sub_resource type="StyleBoxFlat" id=3]
bg_color = Color( 1, 1, 1, 0 )
border_color = Color( 1, 1, 1, 1 )
border_blend = true
corner_detail = 1

[node name="BossHealth" type="Control"]
anchor_right = 1.0
anchor_bottom = 1.0
__meta__ = {
"_edit_use_anchors_": false
}

[node name="ProgressBar" type="ProgressBar" parent="."]
anchor_left = 0.5
anchor_top = 1.0
anchor_right = 0.5
anchor_bottom = 1.0
margin_left = -454.0
margin_top = -68.0
margin_right = 454.0
margin_bottom = -34.0
theme = SubResource( 1 )
custom_styles/fg = SubResource( 2 )
custom_styles/bg = SubResource( 3 )
custom_colors/font_color = Color( 1, 1, 1, 1 )
custom_colors/font_color_shadow = Color( 1, 1, 1, 1 )
value = 100.0
percent_visible = false
__meta__ = {
"_edit_use_anchors_": false
}

[node name="Label" type="Label" parent="ProgressBar"]
anchor_right = 1.0
anchor_bottom = 1.0
margin_top = -0.561234
margin_bottom = -0.561234
custom_colors/font_color_shadow = Color( 0, 0, 0, 1 )
align = 1
valign = 1
__meta__ = {
"_edit_use_anchors_": false
}
