[gd_scene load_steps=3 format=2]

[ext_resource path="res://Scripts/DeadZone.gd" type="Script" id=1]

[sub_resource type="RectangleShape2D" id=1]
extents = Vector2( 4103.87, 40.955 )

[node name="DeadZone" type="Node2D"]
script = ExtResource( 1 )

[node name="Area2D" type="Area2D" parent="."]

[node name="CollisionShape2D" type="CollisionShape2D" parent="Area2D"]
shape = SubResource( 1 )

[connection signal="body_entered" from="Area2D" to="." method="_on_Area2D_body_entered"]
