[gd_scene load_steps=5 format=2]

[ext_resource path="res://Assets/Pixel2DCastle1.1/env_objects.png" type="Texture" id=1]
[ext_resource path="res://Scripts/Gate.gd" type="Script" id=2]

[sub_resource type="AtlasTexture" id=1]
flags = 4
atlas = ExtResource( 1 )
region = Rect2( 0, 0, 80, 80 )

[sub_resource type="RectangleShape2D" id=2]
extents = Vector2( 39.9683, 40.0419 )

[node name="Gate" type="Node2D"]
script = ExtResource( 2 )

[node name="Sprite" type="Sprite" parent="."]
texture = SubResource( 1 )

[node name="InteractArea" type="Area2D" parent="."]

[node name="CollisionShape2D" type="CollisionShape2D" parent="InteractArea"]
shape = SubResource( 2 )

[node name="Label" type="Label" parent="."]
visible = false
margin_left = -25.0
margin_top = -57.0
margin_right = 27.0
margin_bottom = -43.0
custom_colors/font_color_shadow = Color( 0, 0, 0, 1 )
text = "Enter (E)"
align = 1
__meta__ = {
"_edit_use_anchors_": false
}

[connection signal="body_entered" from="InteractArea" to="." method="_on_InteractArea_body_entered"]
[connection signal="body_exited" from="InteractArea" to="." method="_on_InteractArea_body_exited"]
