[gd_scene load_steps=4 format=2]

[sub_resource type="Theme" id=1]

[sub_resource type="StyleBoxFlat" id=2]
bg_color = Color( 1, 0, 0, 1 )

[sub_resource type="StyleBoxFlat" id=3]
bg_color = Color( 1, 1, 1, 0 )
border_color = Color( 1, 1, 1, 1 )
border_blend = true
corner_detail = 1

[node name="HealthBar" type="Control"]
anchor_right = 1.0
anchor_bottom = 1.0
margin_top = -1.09459
margin_bottom = -1.0946
__meta__ = {
"_edit_use_anchors_": false
}

[node name="ProgressBar" type="ProgressBar" parent="."]
margin_left = 20.8111
margin_top = 16.0543
margin_right = 322.811
margin_bottom = 50.0543
theme = SubResource( 1 )
custom_styles/fg = SubResource( 2 )
custom_styles/bg = SubResource( 3 )
custom_colors/font_color = Color( 1, 1, 1, 1 )
custom_colors/font_color_shadow = Color( 1, 1, 1, 1 )
value = 100.0
percent_visible = false
__meta__ = {
"_edit_use_anchors_": false
}

[node name="Label" type="Label" parent="ProgressBar"]
anchor_right = 1.0
anchor_bottom = 1.0
margin_top = -0.561234
margin_bottom = -0.561234
custom_colors/font_color_shadow = Color( 0, 0, 0, 1 )
align = 1
valign = 1
__meta__ = {
"_edit_use_anchors_": false
}
