[gd_scene load_steps=2 format=2]

[ext_resource path="res://Scripts/LevelSelectInterface.gd" type="Script" id=1]

[node name="LevelSelectInterface" type="Control"]
anchor_left = 0.5
anchor_top = 0.5
anchor_right = 0.5
anchor_bottom = 0.5
margin_left = -512.0
margin_top = -300.0
margin_right = 512.0
margin_bottom = 300.0
script = ExtResource( 1 )
__meta__ = {
"_edit_use_anchors_": false
}

[node name="MarginContainer" type="MarginContainer" parent="."]
anchor_left = 0.5
anchor_top = 0.5
anchor_right = 0.5
anchor_bottom = 0.5
margin_left = -213.5
margin_top = -45.0
margin_right = 213.5
margin_bottom = 45.0
__meta__ = {
"_edit_use_anchors_": false
}

[node name="ColorRect" type="ColorRect" parent="MarginContainer"]
margin_right = 427.0
margin_bottom = 90.0
color = Color( 0.109804, 0.156863, 0.294118, 1 )

[node name="VBoxContainer" type="VBoxContainer" parent="MarginContainer"]
margin_right = 427.0
margin_bottom = 90.0
alignment = 1

[node name="Label" type="Label" parent="MarginContainer/VBoxContainer"]
margin_top = 14.0
margin_right = 427.0
margin_bottom = 28.0
text = "Select Floor"
align = 1

[node name="Floor1" type="Button" parent="MarginContainer/VBoxContainer"]
margin_top = 32.0
margin_right = 427.0
margin_bottom = 52.0
text = "Floor 1"

[node name="Floor2" type="Button" parent="MarginContainer/VBoxContainer"]
margin_top = 56.0
margin_right = 427.0
margin_bottom = 76.0
text = "Floor 2"

[connection signal="pressed" from="MarginContainer/VBoxContainer/Floor1" to="." method="_on_Floor1_pressed"]
[connection signal="pressed" from="MarginContainer/VBoxContainer/Floor2" to="." method="_on_Floor2_pressed"]
