[gd_scene load_steps=9 format=2]

[ext_resource path="res://Scenes/Ground.tres" type="TileSet" id=1]
[ext_resource path="res://Assets/Forest Tileset/BG/NonParallax.png" type="Texture" id=2]
[ext_resource path="res://Scenes/PlayerKnight.tscn" type="PackedScene" id=3]
[ext_resource path="res://Scenes/GUI.tscn" type="PackedScene" id=4]
[ext_resource path="res://Scenes/EnemyBoss.tscn" type="PackedScene" id=5]
[ext_resource path="res://Scenes/Gate.tscn" type="PackedScene" id=6]
[ext_resource path="res://Scenes/DeadZone.tscn" type="PackedScene" id=7]
[ext_resource path="res://Assets/The_Undercover.mp3" type="AudioStream" id=8]

[node name="Level2" type="Node2D"]

[node name="ParallaxBackground" type="ParallaxBackground" parent="."]

[node name="ParallaxLayer" type="ParallaxLayer" parent="ParallaxBackground"]
motion_scale = Vector2( 0.1, 0 )
motion_mirroring = Vector2( 320, 0 )

[node name="TextureRect" type="TextureRect" parent="ParallaxBackground/ParallaxLayer"]
anchor_right = 1.0
anchor_bottom = 1.0
margin_left = -0.775391
margin_top = -402.452
margin_right = 341.225
margin_bottom = -226.452
rect_scale = Vector2( 4, 4 )
texture = ExtResource( 2 )
stretch_mode = 2
__meta__ = {
"_edit_use_anchors_": false
}

[node name="GUI" parent="." instance=ExtResource( 4 )]

[node name="Ground" type="TileMap" parent="."]
tile_set = ExtResource( 1 )
cell_size = Vector2( 32, 32 )
format = 1
tile_data = PoolIntArray( 720903, 0, 0, 720904, 1, 0, 720905, 1, 0, 720906, 1, 0, 720907, 1, 0, 720908, 2, 0, 720942, 0, 0, 720943, 1, 0, 720944, 1, 0, 720945, 1, 0, 720946, 1, 0, 720947, 2, 0, 786439, 3, 0, 786440, 4, 0, 786441, 4, 0, 786442, 4, 0, 786443, 4, 0, 786444, 5, 0, 786478, 3, 0, 786479, 4, 0, 786480, 4, 0, 786481, 4, 0, 786482, 4, 0, 786483, 5, 0, 851975, 3, 0, 851976, 4, 0, 851977, 4, 0, 851978, 4, 0, 851979, 4, 0, 851980, 5, 0, 852014, 3, 0, 852015, 4, 0, 852016, 4, 0, 852017, 4, 0, 852018, 4, 0, 852019, 5, 0, 917511, 3, 0, 917512, 4, 0, 917513, 4, 0, 917514, 4, 0, 917515, 4, 0, 917516, 5, 0, 917550, 3, 0, 917551, 4, 0, 917552, 4, 0, 917553, 4, 0, 917554, 4, 0, 917555, 5, 0, 983047, 3, 0, 983048, 4, 0, 983049, 4, 0, 983050, 4, 0, 983051, 4, 0, 983052, 5, 0, 983086, 3, 0, 983087, 4, 0, 983088, 4, 0, 983089, 4, 0, 983090, 4, 0, 983091, 5, 0, 1048583, 3, 0, 1048584, 4, 0, 1048585, 4, 0, 1048586, 4, 0, 1048587, 4, 0, 1048588, 5, 0, 1048622, 3, 0, 1048623, 4, 0, 1048624, 4, 0, 1048625, 4, 0, 1048626, 4, 0, 1048627, 5, 0, 1114119, 3, 0, 1114120, 4, 0, 1114121, 4, 0, 1114122, 4, 0, 1114123, 4, 0, 1114124, 5, 0, 1114158, 3, 0, 1114159, 4, 0, 1114160, 4, 0, 1114161, 4, 0, 1114162, 4, 0, 1114163, 5, 0, 1179655, 3, 0, 1179656, 4, 0, 1179657, 4, 0, 1179658, 4, 0, 1179659, 4, 0, 1179660, 5, 0, 1179694, 3, 0, 1179695, 4, 0, 1179696, 4, 0, 1179697, 4, 0, 1179698, 4, 0, 1179699, 5, 0, 1245191, 3, 0, 1245192, 4, 0, 1245193, 4, 0, 1245194, 4, 0, 1245195, 4, 0, 1245196, 5, 0, 1245230, 3, 0, 1245231, 4, 0, 1245232, 4, 0, 1245233, 4, 0, 1245234, 4, 0, 1245235, 5, 0, 1310727, 3, 0, 1310728, 4, 0, 1310729, 4, 0, 1310730, 4, 0, 1310731, 4, 0, 1310732, 5, 0, 1310766, 3, 0, 1310767, 4, 0, 1310768, 4, 0, 1310769, 4, 0, 1310770, 4, 0, 1310771, 5, 0, 1376263, 3, 0, 1376264, 4, 0, 1376265, 4, 0, 1376266, 4, 0, 1376267, 4, 0, 1376268, 5, 0, 1376302, 3, 0, 1376303, 4, 0, 1376304, 4, 0, 1376305, 4, 0, 1376306, 4, 0, 1376307, 5, 0, 1441799, 3, 0, 1441800, 4, 0, 1441801, 4, 0, 1441802, 4, 0, 1441803, 4, 0, 1441804, 5, 0, 1441838, 3, 0, 1441839, 4, 0, 1441840, 4, 0, 1441841, 4, 0, 1441842, 4, 0, 1441843, 5, 0, 1507335, 3, 0, 1507336, 4, 0, 1507337, 4, 0, 1507338, 4, 0, 1507339, 4, 0, 1507340, 5, 0, 1507374, 3, 0, 1507375, 4, 0, 1507376, 4, 0, 1507377, 4, 0, 1507378, 4, 0, 1507379, 5, 0, 1572871, 3, 0, 1572872, 4, 0, 1572873, 4, 0, 1572874, 4, 0, 1572875, 4, 0, 1572876, 5, 0, 1572910, 3, 0, 1572911, 4, 0, 1572912, 4, 0, 1572913, 4, 0, 1572914, 4, 0, 1572915, 5, 0, 1638407, 3, 0, 1638408, 4, 0, 1638409, 4, 0, 1638410, 4, 0, 1638411, 4, 0, 1638412, 5, 0, 1638446, 3, 0, 1638447, 4, 0, 1638448, 4, 0, 1638449, 4, 0, 1638450, 4, 0, 1638451, 5, 0, 1703943, 3, 0, 1703944, 4, 0, 1703945, 4, 0, 1703946, 4, 0, 1703947, 4, 0, 1703948, 12, 0, 1703949, 1, 0, 1703950, 1, 0, 1703951, 1, 0, 1703952, 1, 0, 1703953, 1, 0, 1703954, 1, 0, 1703955, 1, 0, 1703956, 1, 0, 1703957, 1, 0, 1703958, 1, 0, 1703959, 1, 0, 1703960, 1, 0, 1703961, 1, 0, 1703962, 1, 0, 1703963, 1, 0, 1703964, 1, 0, 1703965, 1, 0, 1703966, 1, 0, 1703967, 1, 0, 1703968, 1, 0, 1703969, 1, 0, 1703970, 1, 0, 1703971, 1, 0, 1703972, 1, 0, 1703973, 1, 0, 1703974, 1, 0, 1703975, 1, 0, 1703976, 1, 0, 1703977, 1, 0, 1703978, 1, 0, 1703979, 1, 0, 1703980, 1, 0, 1703981, 1, 0, 1703982, 17, 0, 1703983, 4, 0, 1703984, 4, 0, 1703985, 4, 0, 1703986, 4, 0, 1703987, 5, 0, 1769479, 3, 0, 1769480, 4, 0, 1769481, 4, 0, 1769482, 4, 0, 1769483, 4, 0, 1769484, 4, 0, 1769485, 4, 0, 1769486, 4, 0, 1769487, 4, 0, 1769488, 4, 0, 1769489, 4, 0, 1769490, 4, 0, 1769491, 4, 0, 1769492, 4, 0, 1769493, 4, 0, 1769494, 4, 0, 1769495, 4, 0, 1769496, 4, 0, 1769497, 4, 0, 1769498, 4, 0, 1769499, 4, 0, 1769500, 4, 0, 1769501, 4, 0, 1769502, 4, 0, 1769503, 4, 0, 1769504, 4, 0, 1769505, 4, 0, 1769506, 4, 0, 1769507, 4, 0, 1769508, 4, 0, 1769509, 4, 0, 1769510, 4, 0, 1769511, 4, 0, 1769512, 4, 0, 1769513, 4, 0, 1769514, 4, 0, 1769515, 4, 0, 1769516, 4, 0, 1769517, 4, 0, 1769518, 4, 0, 1769519, 4, 0, 1769520, 4, 0, 1769521, 4, 0, 1769522, 4, 0, 1769523, 5, 0, 1835015, 3, 0, 1835016, 4, 0, 1835017, 4, 0, 1835018, 4, 0, 1835019, 4, 0, 1835020, 4, 0, 1835021, 4, 0, 1835022, 4, 0, 1835023, 4, 0, 1835024, 4, 0, 1835025, 4, 0, 1835026, 4, 0, 1835027, 4, 0, 1835028, 4, 0, 1835029, 4, 0, 1835030, 4, 0, 1835031, 4, 0, 1835032, 4, 0, 1835033, 4, 0, 1835034, 4, 0, 1835035, 4, 0, 1835036, 4, 0, 1835037, 4, 0, 1835038, 4, 0, 1835039, 4, 0, 1835040, 4, 0, 1835041, 4, 0, 1835042, 4, 0, 1835043, 4, 0, 1835044, 4, 0, 1835045, 4, 0, 1835046, 4, 0, 1835047, 4, 0, 1835048, 4, 0, 1835049, 4, 0, 1835050, 4, 0, 1835051, 4, 0, 1835052, 4, 0, 1835053, 4, 0, 1835054, 4, 0, 1835055, 4, 0, 1835056, 4, 0, 1835057, 4, 0, 1835058, 4, 0, 1835059, 5, 0, 1900551, 3, 0, 1900552, 4, 0, 1900553, 4, 0, 1900554, 4, 0, 1900555, 4, 0, 1900556, 4, 0, 1900557, 4, 0, 1900558, 4, 0, 1900559, 4, 0, 1900560, 4, 0, 1900561, 4, 0, 1900562, 4, 0, 1900563, 4, 0, 1900564, 4, 0, 1900565, 4, 0, 1900566, 4, 0, 1900567, 4, 0, 1900568, 4, 0, 1900569, 4, 0, 1900570, 4, 0, 1900571, 4, 0, 1900572, 4, 0, 1900573, 4, 0, 1900574, 4, 0, 1900575, 4, 0, 1900576, 4, 0, 1900577, 4, 0, 1900578, 4, 0, 1900579, 4, 0, 1900580, 4, 0, 1900581, 4, 0, 1900582, 4, 0, 1900583, 4, 0, 1900584, 4, 0, 1900585, 4, 0, 1900586, 4, 0, 1900587, 4, 0, 1900588, 4, 0, 1900589, 4, 0, 1900590, 4, 0, 1900591, 4, 0, 1900592, 4, 0, 1900593, 4, 0, 1900594, 4, 0, 1900595, 5, 0, 1966087, 3, 0, 1966088, 4, 0, 1966089, 4, 0, 1966090, 4, 0, 1966091, 4, 0, 1966092, 4, 0, 1966093, 4, 0, 1966094, 4, 0, 1966095, 4, 0, 1966096, 4, 0, 1966097, 4, 0, 1966098, 4, 0, 1966099, 4, 0, 1966100, 4, 0, 1966101, 4, 0, 1966102, 4, 0, 1966103, 4, 0, 1966104, 4, 0, 1966105, 4, 0, 1966106, 4, 0, 1966107, 4, 0, 1966108, 4, 0, 1966109, 4, 0, 1966110, 4, 0, 1966111, 4, 0, 1966112, 4, 0, 1966113, 4, 0, 1966114, 4, 0, 1966115, 4, 0, 1966116, 4, 0, 1966117, 4, 0, 1966118, 4, 0, 1966119, 4, 0, 1966120, 4, 0, 1966121, 4, 0, 1966122, 4, 0, 1966123, 4, 0, 1966124, 4, 0, 1966125, 4, 0, 1966126, 4, 0, 1966127, 4, 0, 1966128, 4, 0, 1966129, 4, 0, 1966130, 4, 0, 1966131, 5, 0, 2031623, 6, 0, 2031624, 7, 0, 2031625, 7, 0, 2031626, 7, 0, 2031627, 7, 0, 2031628, 7, 0, 2031629, 7, 0, 2031630, 7, 0, 2031631, 7, 0, 2031632, 7, 0, 2031633, 7, 0, 2031634, 7, 0, 2031635, 7, 0, 2031636, 7, 0, 2031637, 7, 0, 2031638, 7, 0, 2031639, 7, 0, 2031640, 7, 0, 2031641, 7, 0, 2031642, 7, 0, 2031643, 7, 0, 2031644, 7, 0, 2031645, 7, 0, 2031646, 7, 0, 2031647, 7, 0, 2031648, 7, 0, 2031649, 7, 0, 2031650, 7, 0, 2031651, 7, 0, 2031652, 7, 0, 2031653, 7, 0, 2031654, 7, 0, 2031655, 10, 0, 2031656, 10, 0, 2031657, 10, 0, 2031658, 10, 0, 2031659, 10, 0, 2031660, 10, 0, 2031661, 10, 0, 2031662, 10, 0, 2031663, 7, 0, 2031664, 7, 0, 2031665, 7, 0, 2031666, 7, 0, 2031667, 8, 0 )

[node name="Gate" parent="." instance=ExtResource( 6 )]
visible = false
position = Vector2( 1399.51, 792.07 )

[node name="PlayerKnight" parent="." instance=ExtResource( 3 )]
position = Vector2( 322.739, 287.501 )

[node name="EnemyBoss" parent="." instance=ExtResource( 5 )]
position = Vector2( 1276.15, 812.565 )

[node name="DeadZone" parent="." instance=ExtResource( 7 )]
position = Vector2( 586.356, 1696.76 )

[node name="BGM" type="AudioStreamPlayer" parent="."]
stream = ExtResource( 8 )
volume_db = -10.0
autoplay = true
